testbenches/tb.vcd
$date
  Mon Feb  2 19:36:22 2015
$end
$version
  GHDL v0
$end
$timescale
  1 fs
$end
$var reg 1 ! clock $end
$var reg 1 " enable $end
$var reg 9 # rs_instr[8:0] $end
$var reg 1 $ done $end
$var reg 1 % lcd_rs $end
$var reg 1 & lcd_en $end
$var reg 1 ' lcd_rw $end
$var reg 8 ( lcdd[7:0] $end
$scope module comp_test $end
$var reg 1 ) clk $end
$var reg 1 * send $end
$var reg 9 + ins_in[8:0] $end
$var reg 1 , done_write $end
$var reg 1 - lcd_rs_out_w $end
$var reg 1 . lcd_enable_w $end
$var reg 1 / lcd_rw_out_w $end
$var reg 8 0 lcdd_out_w[7:0] $end
$comment w_state is not handled $end
$var integer 32 1 counter $end
$upscope $end
$enddefinitions $end
#0
0!
0"
bUUUUUUUUU #
0$
U%
U&
U'
bUUUUUUUU (
0)
0*
bUUUUUUUUU +
0,
U-
U.
U/
bUUUUUUUU 0
b0 1
#5000000
1!
b000000000 #
1)
b000000000 +
#6000000
#10000000
0!
0)
#15000000
1!
1"
b000000001 #
1)
1*
b000000001 +
#16000000
#20000000
0!
0)
#25000000
1!
1)
#26000000
#30000000
0!
0)
#35000000
1!
0"
0%
0&
0'
b00000001 (
1)
0*
0-
0.
0/
b00000001 0
#36000000
#40000000
0!
0)
#45000000
1!
1&
1)
1.
b1 1
#50000000
0!
0)
#55000000
1!
1)
b10 1
#60000000
0!
0)
#65000000
1!
1)
b11 1
#70000000
0!
0)
#75000000
1!
1)
b100 1
#80000000
0!
0)
#85000000
1!
1)
b101 1
#90000000
0!
0)
#95000000
1!
1)
b110 1
#100000000
0!
0)
#105000000
1!
1)
b111 1
#110000000
0!
0)
#115000000
1!
1)
b0 1
#116000000
#120000000
0!
0)
#125000000
1!
0&
1)
0.
b1 1
#126000000
#130000000
0!
0)
#135000000
1!
1)
b10 1
#140000000
0!
0)
#145000000
1!
1)
b11 1
#150000000
0!
0)
#155000000
1!
1)
b100 1
#160000000
0!
0)
#165000000
1!
1)
b101 1
#170000000
0!
0)
#175000000
1!
1)
b110 1
#180000000
0!
0)
#185000000
1!
1)
b111 1
#190000000
0!
0)
#195000000
1!
1)
b1000 1
#200000000
0!
0)
#205000000
1!
1)
b1001 1
#210000000
0!
0)
#215000000
1!
1)
b1010 1
#220000000
0!
0)
#225000000
1!
1)
b1011 1
#230000000
0!
0)
#235000000
1!
1)
b1100 1
#240000000
0!
0)
#245000000
1!
1)
b1101 1
#250000000
0!
0)
#255000000
1!
1)
b1110 1
#260000000
0!
0)
#265000000
1!
1)
b1111 1
#270000000
0!
0)
#275000000
1!
1)
b10000 1
#280000000
0!
0)
#285000000
1!
1)
b10001 1
#290000000
0!
0)
#295000000
1!
1)
b10010 1
#300000000
0!
0)
#305000000
1!
1)
b10011 1
#310000000
0!
0)
#315000000
1!
1)
b10100 1
#320000000
0!
0)
#325000000
1!
1)
b10101 1
#330000000
0!
0)
#335000000
1!
1)
b10110 1
#340000000
0!
0)
#345000000
1!
1)
b10111 1
#350000000
0!
0)
#355000000
1!
1)
b11000 1
#360000000
0!
0)
#365000000
1!
1)
b11001 1
#370000000
0!
0)
#375000000
1!
1)
b11010 1
#380000000
0!
0)
#385000000
1!
1)
b11011 1
#390000000
0!
0)
#395000000
1!
1)
b11100 1
#400000000
0!
0)
#405000000
1!
1)
b11101 1
#410000000
0!
0)
#415000000
1!
1)
b11110 1
#420000000
0!
0)
#425000000
1!
1)
b11111 1
#430000000
0!
0)
#435000000
1!
1)
b100000 1
#440000000
0!
0)
#445000000
1!
1)
b100001 1
#450000000
0!
0)
#455000000
1!
1)
b100010 1
#460000000
0!
0)
#465000000
1!
1)
b100011 1
#470000000
0!
0)
#475000000
1!
1)
b100100 1
#480000000
0!
0)
#485000000
1!
1)
b100101 1
#490000000
0!
0)
#495000000
1!
1)
b100110 1
#500000000
0!
0)
#505000000
1!
1)
b100111 1
#510000000
0!
0)
#515000000
1!
1)
b101000 1
#520000000
0!
0)
#525000000
1!
1)
b101001 1
#530000000
0!
0)
#535000000
1!
1)
b101010 1
#540000000
0!
0)
#545000000
1!
1)
b101011 1
#550000000
0!
0)
#555000000
1!
1)
b101100 1
#560000000
0!
0)
#565000000
1!
1)
b101101 1
#570000000
0!
0)
#575000000
1!
1)
b101110 1
#580000000
0!
0)
#585000000
1!
1)
b101111 1
#590000000
0!
0)
#595000000
1!
1)
b110000 1
#600000000
0!
0)
#605000000
1!
1)
b110001 1
#610000000
0!
0)
#615000000
1!
1)
b110010 1
#620000000
0!
0)
#625000000
1!
1)
b110011 1
#630000000
0!
0)
#635000000
1!
1)
b110100 1
#640000000
0!
0)
#645000000
1!
1)
b110101 1
#650000000
0!
0)
#655000000
1!
1)
b110110 1
#660000000
0!
0)
#665000000
1!
1)
b110111 1
#670000000
0!
0)
#675000000
1!
1)
b111000 1
#680000000
0!
0)
#685000000
1!
1)
b111001 1
#690000000
0!
0)
#695000000
1!
1)
b111010 1
#700000000
0!
0)
#705000000
1!
1)
b111011 1
#710000000
0!
0)
#715000000
1!
1)
b111100 1
#720000000
0!
0)
#725000000
1!
1)
b111101 1
#730000000
0!
0)
#735000000
1!
1)
b111110 1
#740000000
0!
0)
#745000000
1!
1)
b111111 1
#750000000
0!
0)
#755000000
1!
1)
b1000000 1
#760000000
0!
0)
#765000000
1!
1)
b1000001 1
#770000000
0!
0)
#775000000
1!
1)
b1000010 1
#780000000
0!
0)
#785000000
1!
1)
b1000011 1
#790000000
0!
0)
#795000000
1!
1)
b1000100 1
#800000000
0!
0)
#805000000
1!
1)
b1000101 1
#810000000
0!
0)
#815000000
1!
1)
b1000110 1
#820000000
0!
0)
#825000000
1!
1)
b1000111 1
#830000000
0!
0)
#835000000
1!
1)
b1001000 1
#840000000
0!
0)
#845000000
1!
1)
b1001001 1
#850000000
0!
0)
#855000000
1!
1)
b1001010 1
#860000000
0!
0)
#865000000
1!
1)
b1001011 1
#870000000
0!
0)
#875000000
1!
1)
b1001100 1
#880000000
0!
0)
#885000000
1!
1)
b1001101 1
#890000000
0!
0)
#895000000
1!
1)
b1001110 1
#900000000
0!
0)
#905000000
1!
1)
b1001111 1
#910000000
0!
0)
#915000000
1!
1)
b1010000 1
#920000000
0!
0)
#925000000
1!
1)
b1010001 1
#930000000
0!
0)
#935000000
1!
1)
b1010010 1
#940000000
0!
0)
#945000000
1!
1)
b1010011 1
#950000000
0!
0)
#955000000
1!
1)
b1010100 1
#960000000
0!
0)
#965000000
1!
1)
b1010101 1
#970000000
0!
0)
#975000000
1!
1)
b1010110 1
#980000000
0!
0)
#985000000
1!
1)
b1010111 1
#990000000
0!
0)
#995000000
1!
1)
b1011000 1
#1000000000
0!
0)
#1005000000
1!
1)
b1011001 1
#1010000000
0!
0)
#1015000000
1!
1)
b1011010 1
#1020000000
0!
0)
#1025000000
1!
1)
b1011011 1
#1030000000
0!
0)
#1035000000
1!
1)
b1011100 1
#1040000000
0!
0)
#1045000000
1!
1)
b1011101 1
#1050000000
0!
0)
#1055000000
1!
1)
b1011110 1
#1060000000
0!
0)
#1065000000
1!
1)
b1011111 1
#1070000000
0!
0)
#1075000000
1!
1)
b1100000 1
#1080000000
0!
0)
#1085000000
1!
1)
b1100001 1
#1090000000
0!
0)
#1095000000
1!
1)
b1100010 1
#1100000000
0!
0)
#1105000000
1!
1)
b1100011 1
#1110000000
0!
0)
#1115000000
1!
1)
b1100100 1
#1120000000
0!
0)
#1125000000
1!
1)
b1100101 1
#1130000000
0!
0)
#1135000000
1!
1)
b1100110 1
#1140000000
0!
0)
#1145000000
1!
1)
b1100111 1
#1150000000
0!
0)
#1155000000
1!
1)
b1101000 1
#1160000000
0!
0)
#1165000000
1!
1)
b1101001 1
#1170000000
0!
0)
#1175000000
1!
1)
b1101010 1
#1180000000
0!
0)
#1185000000
1!
1)
b1101011 1
#1190000000
0!
0)
#1195000000
1!
1)
b1101100 1
#1200000000
0!
0)
#1205000000
1!
1)
b1101101 1
#1210000000
0!
0)
#1215000000
1!
1)
b1101110 1
#1220000000
0!
0)
#1225000000
1!
1)
b1101111 1
#1230000000
0!
0)
#1235000000
1!
1)
b1110000 1
#1240000000
0!
0)
#1245000000
1!
1)
b1110001 1
#1250000000
0!
0)
#1255000000
1!
1)
b1110010 1
#1260000000
0!
0)
#1265000000
1!
1)
b1110011 1
#1270000000
0!
0)
#1275000000
1!
1)
b1110100 1
#1280000000
0!
0)
#1285000000
1!
1)
b1110101 1
#1290000000
0!
0)
#1295000000
1!
1)
b1110110 1
#1300000000
0!
0)
#1305000000
1!
1)
b1110111 1
#1310000000
0!
0)
#1315000000
1!
1)
b0 1
#1320000000
0!
0)
#1325000000
1!
1$
1)
1,
